{
  "type": "service_account",
  "project_id": "woidbook",
  "private_key_id": "b077f17d823c1b7a67acc4000000660351954003",
  "private_key": "-----BEGIN PRIVATE KEY-----\nMIIEvAIBADANBgkqhkiG9w0BAQEFAASCBKYwggSiAgEAAoIBAQCsJoCNQTH7sRPL\nCqgDBnwHq/nPxMHw/upB9Tw/inEQOFzQafrnnkgS0+f8HusNo8nDhtrq0+JxLKug\nqSmJlYCw9a9Bbm9aYl/ybRs/js5T0l/EaExoG9jBhmbxx4JjwwsIsWXt9KEi+loU\nyzNb0q/oPVJ5Fy8lJg5QNLgn0Oy2G+Zf8kj2PXV+dOPJPbVvkHoHknVKoJ6Invma\n3Iaz4jS6BG5ewwvgFT/O6VlOVI9wBoi57dTSJ3nEolx+mw4viebMz/YA+DYNERve\njPPh7R02HUMsXjyfOB/dJxzUB9mhYro+RxlBQAB0BaA/hozIg3M79VkWXfRoajKT\nYZGAUuYnAgMBAAECggEABEbAksG32CTB9R1CpzCWDCq9fefJWY87in/pCzsJK/n6\ndELttKs95xnUfXLXK/ORo4XKEmNJEL6nVMpe+cf49mxj+iAgLAKdl4wWTTHi9joX\nnu1oWH24mLYaAI+QMaI6t/CQM6UMC65kZnfVwsYtEHvVfKSSyz1yxZNJr9OEzdFB\nHPYWvFVmNRFyHWNoi2q2geRi5ODgy/fS6WTaZs0VVeMvYVOneIpQVoWXOijNbOep\nJhN6hzLxsGaW5XwVrmMeMXYEK6s5NVfJvCTmN0/s5KOQS6qriL3/HkNT7qqoOaDo\n4sbK/RcBBKZvdGI5UCefXyaPfWjAmSl3ZeJvcEFcYQKBgQDq0lX52A88JBPPizXz\n62KLGi5Q5H3odQy8TID2sVyeF1ZuiTIzc4G4MJdt9iCjQ1du4jFVPRtBRJdY3jnN\nyW41zCFhIX4U2qLW/6r9zJVMP6Gb6NHbm+HBXFMZSti4Z5f0rANWAdGwXcw5VgcX\nlHwCDz/4Ts4QxO94Eqv/0u2bWwKBgQC7rS+KfcQnWm8LnqfYWERGQxuvNRwoa4ha\nDFm1LL7OJg6qNfQZzwwogldOIrvZqk/M1R8nuy9N/Ss0DBkMbsnUw6MAy3HQmMzD\nTw7gqhPaTxliMhlmIyzgqfUBVdQZogbCecjU4MTIR18gBYniRh9rE9+7/P0ErJbx\n9MjcGrb2JQKBgBXVxSTcUF5ZRHZSDYxG4PzqTFA9Tu/konCH9J371A7nQKQ6oa5j\nGTbVXd9duZ80zdaDte6lJfmltSUQVPOrvVHHT3tGsACka+vuDipXcbKLYC2tMoZn\nMlDWkuuRKCHNkDWyIQVIWgU6U5kpRLOOnRFb9ajTOxoYFeRmaBP7uxhtAoGAU1Xy\nr09rQ4I/nuxDYajIIF76MxGlQDmHoVyslOuailWR23j7vF4Y6v/9nn+D5IJgzvav\nz+epeLr7bTAWC1RCoQyCG/86ucKv4eYAGDjNefn3rofKiXUDH3u4hHBFL2CoGcEU\nMZrhJoGytrhe4q/6kYSQq5wKCgJNQIFOk5X1OlUCgYBxp9XFYstYvcWW37zIuhzF\nXHku1C+DMY8fX+ivb5fCh0PGfcaa4n9OjWb8jraC1AIT/ybDguQJOXi5vf3rTaCv\ng5iOMovXpP4ryKkQa6BzAFHdOApClyG/10/bbC9SgfLEZdJ+ZN8hDb5Ms8teSQwI\nNKbn9qnqFjzC+Qnx/bmMLA==\n-----END PRIVATE KEY-----\n",
  "client_email": "firebase-adminsdk-jepwq@woidbook.iam.gserviceaccount.com",
  "client_id": "106357902398684942982",
  "auth_uri": "https://accounts.google.com/o/oauth2/auth",
  "token_uri": "https://oauth2.googleapis.com/token",
  "auth_provider_x509_cert_url": "https://www.googleapis.com/oauth2/v1/certs",
  "client_x509_cert_url": "https://www.googleapis.com/robot/v1/metadata/x509/firebase-adminsdk-jepwq%40woidbook.iam.gserviceaccount.com"
}
